[
    {
        "name": "Maintenance Records",
        "type": "maintenance",
        "path": "./data/maintenance_records.csv"
    },
    {
        "name": "Fleet Information",
        "type": "fleet",
        "path": "./data/fleet_information.csv"
    }
]